[
  {
    "label": "Quiz-1",
    "name": "quiz1",
    "description": "Questions about quiz1",
    "fileName": "quiz1.json"
  },
  {
    "label": "Quiz-2",
    "name": "quiz2",
    "description": "Questions about quiz2",
    "fileName": "quiz2.json"
  }
]
